<?xml version="1.0" standalone="no"?>
<!DOCTYPE svg PUBLIC "-//W3C//DTD SVG 20010904//EN"
 "http://www.w3.org/TR/2001/REC-SVG-20010904/DTD/svg10.dtd">
<svg version="1.0" xmlns="http://www.w3.org/2000/svg"
 width="624.000000pt" height="624.000000pt" viewBox="0 0 624.000000 624.000000"
 preserveAspectRatio="xMidYMid meet">
<metadata>
Created by potrace 1.11, written by Peter Selinger 2001-2013
</metadata>
<g transform="translate(0.000000,624.000000) scale(0.100000,-0.100000)"
fill="#000000" stroke="none">
<path d="M3064 5853 c-27 -21 -54 -42 -61 -48 -6 -5 -35 -30 -65 -55 -137
-116 -326 -322 -449 -490 -134 -182 -288 -467 -363 -670 -39 -109 -103 -315
-111 -363 -4 -17 -12 -61 -20 -97 -7 -36 -16 -86 -20 -111 -3 -25 -8 -57 -10
-70 -12 -65 -17 -141 -22 -327 l-5 -203 53 22 c30 12 96 36 147 54 51 18 95
34 98 37 3 3 7 66 9 139 3 74 7 150 10 169 3 19 7 58 11 85 19 163 104 480
164 610 5 11 19 43 31 70 129 298 312 565 540 790 59 58 112 105 119 105 19 0
217 -204 301 -310 42 -52 101 -131 132 -175 l55 -80 94 -24 c51 -13 141 -40
201 -61 59 -20 107 -33 107 -29 0 13 -90 179 -143 264 -130 208 -250 358 -437
543 -88 87 -295 262 -310 262 -4 0 -29 -17 -56 -37z"/>
<path d="M3108 4835 c-2 -1 -55 -5 -118 -9 -63 -3 -128 -8 -145 -10 -45 -6
-120 -17 -121 -19 -67 -122 -164 -324 -164 -341 0 -3 29 3 90 18 146 38 265
51 470 51 194 -1 243 -5 390 -35 364 -74 706 -257 970 -520 118 -117 152 -157
239 -285 126 -186 221 -391 273 -591 13 -49 28 -96 33 -104 6 -8 44 -44 85
-80 41 -35 114 -104 162 -152 l86 -87 -4 77 c-4 76 -7 103 -25 220 -66 431
-299 881 -622 1204 -223 224 -450 373 -772 508 -73 31 -199 70 -275 86 -14 2
-34 8 -45 11 -11 4 -27 8 -35 9 -8 2 -42 8 -75 13 -101 18 -126 21 -230 27
-55 3 -115 7 -132 8 -18 2 -34 2 -35 1z"/>
<path d="M1849 4439 c-315 -217 -575 -518 -743 -864 -158 -322 -230 -643 -227
-1005 0 -69 3 -145 6 -170 2 -25 7 -67 10 -95 28 -240 128 -555 248 -775 72
-133 209 -335 252 -370 18 -15 113 -17 220 -6 28 3 77 8 110 12 33 3 61 6 62
7 1 1 -32 38 -74 82 -41 44 -87 95 -102 115 -14 19 -31 41 -38 48 -50 52 -202
318 -250 437 -27 67 -65 185 -88 275 -41 165 -50 247 -50 465 1 208 9 291 46
440 11 44 21 87 23 95 33 132 156 394 254 540 85 125 110 157 222 273 47 49
88 94 91 100 4 7 16 59 27 117 27 134 25 129 55 235 14 49 25 91 23 92 -1 2
-36 -20 -77 -48z"/>
<path d="M3924 4173 c12 -41 32 -142 42 -213 3 -25 8 -53 10 -63 2 -10 6 -59
10 -110 18 -248 6 -490 -36 -702 -6 -27 -12 -59 -14 -70 -2 -11 -12 -49 -21
-85 -105 -413 -308 -783 -613 -1118 l-72 -80 92 -69 c51 -39 106 -79 122 -90
l30 -20 51 56 c277 298 472 622 610 1007 42 116 98 325 110 409 4 22 8 47 10
55 2 8 7 38 11 65 3 28 7 52 9 55 18 30 26 508 11 630 -4 36 -9 79 -11 95 -4
28 -15 42 -86 100 -34 28 -175 118 -227 144 -40 20 -43 21 -38 4z"/>
<path d="M2978 3506 c-1 -2 -43 -6 -93 -10 -49 -3 -105 -8 -123 -11 -18 -2
-52 -7 -75 -10 -198 -28 -469 -103 -662 -182 -183 -76 -436 -217 -587 -327
-66 -49 -78 -62 -84 -94 -4 -20 -9 -46 -11 -57 -2 -11 -7 -90 -10 -175 l-6
-154 49 42 c76 65 224 184 274 218 589 407 1327 552 2025 398 121 -26 132 -27
133 -13 0 8 8 72 18 142 12 88 14 131 7 138 -9 9 -42 19 -118 35 -41 8 -252
43 -305 49 -55 7 -425 16 -432 11z"/>
<path d="M4426 3178 c-2 -7 -11 -56 -20 -108 -24 -143 -26 -154 -30 -166 -7
-18 4 -27 104 -89 245 -153 456 -340 641 -568 124 -153 254 -357 319 -502 12
-27 31 -70 43 -95 63 -139 171 -500 154 -516 -7 -8 -227 -72 -270 -79 -18 -3
-66 -12 -107 -20 -41 -7 -97 -16 -125 -20 -98 -11 -160 -16 -192 -17 -26 0
-47 -16 -125 -92 -51 -50 -122 -116 -157 -146 l-63 -55 28 -5 c35 -7 385 -4
434 3 19 3 67 9 105 12 209 20 598 125 782 212 31 14 33 17 27 57 -9 60 -11
77 -18 116 -3 19 -8 46 -10 60 -2 14 -7 39 -11 55 -170 783 -629 1442 -1295
1857 -144 90 -209 122 -214 106z"/>
<path d="M2229 2885 c-106 -41 -191 -83 -186 -93 2 -4 14 -38 26 -77 194 -621
599 -1164 1141 -1532 151 -102 473 -273 514 -273 35 0 294 125 353 171 l23 17
-28 6 c-29 8 -172 58 -237 84 -145 58 -501 262 -567 324 -7 7 -31 26 -53 43
-63 47 -102 82 -220 200 -295 295 -495 620 -629 1025 -24 72 -45 132 -47 134
-2 3 -43 -11 -90 -29z"/>
<path d="M706 2196 c-231 -348 -384 -769 -440 -1214 l-6 -43 57 -25 c165 -73
495 -164 688 -190 17 -2 46 -6 65 -9 208 -29 590 -24 775 9 17 3 48 8 70 11
22 4 48 8 57 11 10 3 30 7 45 10 120 19 417 114 563 181 188 86 391 198 397
219 1 5 -21 27 -49 49 -27 22 -80 66 -116 97 l-66 57 -110 -59 c-61 -32 -140
-70 -176 -85 -36 -15 -83 -35 -105 -45 -101 -45 -352 -114 -512 -140 -236 -38
-475 -43 -746 -15 -115 12 -389 76 -469 109 -36 15 -36 16 -26 52 5 20 11 44
13 53 7 37 69 241 91 301 27 72 24 66 88 204 25 54 46 105 46 115 0 9 -9 45
-20 81 -17 54 -46 184 -66 290 -3 13 -7 26 -8 28 -2 1 -20 -22 -40 -52z"/>
<path d="M5003 2128 c-3 -61 -106 -328 -174 -455 -282 -519 -794 -891 -1368
-993 -115 -20 -140 -22 -316 -25 -203 -4 -308 8 -506 57 l-127 30 -123 -40
c-68 -23 -162 -51 -209 -63 -47 -12 -90 -24 -97 -28 -17 -9 193 -103 338 -151
125 -41 315 -84 423 -96 33 -3 69 -8 80 -10 26 -5 314 -5 381 1 269 21 534 95
790 220 467 228 817 578 1039 1038 35 73 71 151 79 173 l16 42 -56 88 c-64
101 -153 224 -163 224 -4 0 -7 -6 -7 -12z"/>
</g>
</svg>
